<?xml version="1.0" encoding="UTF-8"?>
<svg width="21px" height="21px" viewBox="0 0 21 21" version="1.1" xmlns="http://www.w3.org/2000/svg" xmlns:xlink="http://www.w3.org/1999/xlink">
    <!-- Generator: sketchtool 55.1 (78136) - https://sketchapp.com -->
    <title>E41B0C6F-592B-4FB9-81BE-02A46B3B1220</title>
    <desc>Created with sketchtool.</desc>
    <g id="Page-1" stroke="none" stroke-width="1" fill="none" fill-rule="evenodd">
        <g id="affinities" transform="translate(-800.000000, -2509.000000)" fill="#C7C7C7">
            <g id="affinities-book" transform="translate(0.000000, 1606.000000)">
                <g id="stripe" transform="translate(748.000000, 1.000000)">
                    <g id="Group" transform="translate(16.000000, 861.000000)">
                        <g id="selector" transform="translate(0.000000, 41.000000)">
                            <circle id="selector-active" cx="46.5" cy="10.5" r="10.5"></circle>
                        </g>
                    </g>
                </g>
            </g>
        </g>
    </g>
</svg>