<?xml version="1.0" encoding="UTF-8"?>
<svg width="13px" height="22px" viewBox="0 0 13 22" version="1.1" xmlns="http://www.w3.org/2000/svg" xmlns:xlink="http://www.w3.org/1999/xlink">
    <!-- Generator: Sketch 54.1 (76490) - https://sketchapp.com -->
    <title>arrow-right-white</title>
    <desc>Created with Sketch.</desc>
    <g id="Page-1" stroke="none" stroke-width="1" fill="none" fill-rule="evenodd">
        <g id="🌈-book-page" transform="translate(-866.000000, -1668.000000)" fill="#000000">
            <g id="👍-συγγραφέας" transform="translate(0.000000, 1337.000000)">
                <g id="link" transform="translate(493.000000, 320.000000)">
                    <polygon id="arrow-right-white" transform="translate(379.385179, 21.954620) rotate(-360.000000) translate(-379.385179, -21.954620) " points="375.402147 10.95462 373.385179 12.7340318 381.756582 21.95462 373.385179 31.1754743 375.402147 32.95462 384.583415 22.8443259 385.385179 21.95462 384.583415 21.0649142"></polygon>
                </g>
            </g>
        </g>
    </g>
</svg>