<?xml version="1.0" encoding="UTF-8"?>
<svg width="12px" height="22px" viewBox="0 0 12 22" version="1.1" xmlns="http://www.w3.org/2000/svg" xmlns:xlink="http://www.w3.org/1999/xlink">
    <!-- Generator: Sketch 54.1 (76490) - https://sketchapp.com -->
    <title>arrow-right-small-white</title>
    <desc>Created with Sketch.</desc>
    <g id="Page-1" stroke="none" stroke-width="1" fill="none" fill-rule="evenodd">
        <g id="🌈-book-page" transform="translate(-393.000000, -2601.000000)" fill="#FFFFFF">
            <g id="👍-σχετικά-βιβλία" transform="translate(-1.000000, 2154.000000)">
                <g id="related-book-title+description" transform="translate(50.000000, 111.000000)">
                    <g id="link" transform="translate(0.000000, 325.000000)">
                        <polygon id="arrow-right-small-white" transform="translate(350.000000, 22.000000) rotate(-360.000000) translate(-350.000000, -22.000000) " points="346.016968 11 344 12.7794118 352.371402 22 344 31.2208543 346.016968 33 355.198236 22.8897059 356 22 355.198236 21.1102941"></polygon>
                    </g>
                </g>
            </g>
        </g>
    </g>
</svg>